info face="Consolas-Bold" size=95 bold=0 italic=0 charset="" unicode=0 stretchH=100 smooth=1 aa=1 padding=0,0,0,0 spacing=2,2
common lineHeight=111 base=71 scaleW=1024 scaleH=512 pages=1 packed=0
page id=0 file="menu_font.png"
chars count=95
char id=124 x=2 y=2 width=15 height=99 xoffset=21 yoffset=-6 xadvance=52 page=0 chnl=0 letter="|"
char id=41 x=19 y=2 width=34 height=93 xoffset=11 yoffset=-0 xadvance=52 page=0 chnl=0 letter=")"
char id=40 x=55 y=2 width=34 height=93 xoffset=13 yoffset=-0 xadvance=52 page=0 chnl=0 letter="("
char id=64 x=91 y=2 width=56 height=92 xoffset=0 yoffset=1 xadvance=52 page=0 chnl=0 letter="@"
char id=123 x=149 y=2 width=40 height=92 xoffset=7 yoffset=-0 xadvance=52 page=0 chnl=0 letter="{"
char id=125 x=191 y=2 width=40 height=92 xoffset=10 yoffset=-0 xadvance=52 page=0 chnl=0 letter="}"
char id=91 x=233 y=2 width=29 height=92 xoffset=14 yoffset=-0 xadvance=52 page=0 chnl=0 letter="["
char id=93 x=264 y=2 width=29 height=92 xoffset=12 yoffset=-0 xadvance=52 page=0 chnl=0 letter="]"
char id=106 x=295 y=2 width=41 height=91 xoffset=6 yoffset=2 xadvance=52 page=0 chnl=0 letter="j"
char id=36 x=338 y=2 width=49 height=86 xoffset=4 yoffset=-0 xadvance=52 page=0 chnl=0 letter="$"
char id=81 x=389 y=2 width=55 height=84 xoffset=2 yoffset=8 xadvance=52 page=0 chnl=0 letter="Q"
char id=47 x=446 y=2 width=48 height=80 xoffset=3 yoffset=4 xadvance=52 page=0 chnl=0 letter="/"
char id=92 x=496 y=2 width=48 height=80 xoffset=6 yoffset=4 xadvance=52 page=0 chnl=0 letter="\"
char id=37 x=546 y=2 width=57 height=72 xoffset=0 yoffset=3 xadvance=52 page=0 chnl=0 letter="%"
char id=121 x=605 y=2 width=55 height=72 xoffset=1 yoffset=21 xadvance=52 page=0 chnl=0 letter="y"
char id=103 x=662 y=2 width=50 height=72 xoffset=4 yoffset=21 xadvance=52 page=0 chnl=0 letter="g"
char id=100 x=714 y=2 width=47 height=72 xoffset=4 yoffset=3 xadvance=52 page=0 chnl=0 letter="d"
char id=98 x=763 y=2 width=47 height=72 xoffset=6 yoffset=3 xadvance=52 page=0 chnl=0 letter="b"
char id=105 x=812 y=2 width=45 height=72 xoffset=7 yoffset=2 xadvance=52 page=0 chnl=0 letter="i"
char id=63 x=859 y=2 width=37 height=72 xoffset=13 yoffset=3 xadvance=52 page=0 chnl=0 letter="?"
char id=33 x=898 y=2 width=19 height=72 xoffset=19 yoffset=3 xadvance=52 page=0 chnl=0 letter="!"
char id=38 x=919 y=2 width=57 height=71 xoffset=1 yoffset=4 xadvance=52 page=0 chnl=0 letter="&"
char id=102 x=2 y=103 width=50 height=71 xoffset=4 yoffset=3 xadvance=52 page=0 chnl=0 letter="f"
char id=107 x=54 y=103 width=48 height=71 xoffset=7 yoffset=3 xadvance=52 page=0 chnl=0 letter="k"
char id=112 x=104 y=103 width=47 height=71 xoffset=6 yoffset=21 xadvance=52 page=0 chnl=0 letter="p"
char id=113 x=153 y=103 width=47 height=71 xoffset=4 yoffset=21 xadvance=52 page=0 chnl=0 letter="q"
char id=108 x=202 y=103 width=45 height=71 xoffset=7 yoffset=3 xadvance=52 page=0 chnl=0 letter="l"
char id=104 x=249 y=103 width=44 height=71 xoffset=6 yoffset=3 xadvance=52 page=0 chnl=0 letter="h"
char id=67 x=295 y=103 width=48 height=68 xoffset=4 yoffset=7 xadvance=52 page=0 chnl=0 letter="C"
char id=116 x=345 y=103 width=48 height=68 xoffset=3 yoffset=7 xadvance=52 page=0 chnl=0 letter="t"
char id=51 x=395 y=103 width=45 height=68 xoffset=6 yoffset=7 xadvance=52 page=0 chnl=0 letter="3"
char id=59 x=442 y=103 width=30 height=68 xoffset=10 yoffset=22 xadvance=52 page=0 chnl=0 letter=";"
char id=79 x=474 y=103 width=54 height=67 xoffset=2 yoffset=8 xadvance=52 page=0 chnl=0 letter="O"
char id=48 x=530 y=103 width=52 height=67 xoffset=2 yoffset=8 xadvance=52 page=0 chnl=0 letter="0"
char id=71 x=584 y=103 width=51 height=67 xoffset=2 yoffset=8 xadvance=52 page=0 chnl=0 letter="G"
char id=56 x=637 y=103 width=48 height=67 xoffset=5 yoffset=8 xadvance=52 page=0 chnl=0 letter="8"
char id=83 x=687 y=103 width=47 height=67 xoffset=5 yoffset=8 xadvance=52 page=0 chnl=0 letter="S"
char id=53 x=736 y=103 width=44 height=67 xoffset=7 yoffset=8 xadvance=52 page=0 chnl=0 letter="5"
char id=74 x=782 y=103 width=39 height=67 xoffset=8 yoffset=8 xadvance=52 page=0 chnl=0 letter="J"
char id=86 x=823 y=103 width=57 height=66 xoffset=0 yoffset=8 xadvance=52 page=0 chnl=0 letter="V"
char id=65 x=882 y=103 width=56 height=66 xoffset=0 yoffset=8 xadvance=52 page=0 chnl=0 letter="A"
char id=88 x=940 y=103 width=56 height=66 xoffset=0 yoffset=8 xadvance=52 page=0 chnl=0 letter="X"
char id=89 x=2 y=176 width=56 height=66 xoffset=0 yoffset=8 xadvance=52 page=0 chnl=0 letter="Y"
char id=87 x=60 y=176 width=54 height=66 xoffset=2 yoffset=8 xadvance=52 page=0 chnl=0 letter="W"
char id=35 x=116 y=176 width=54 height=66 xoffset=2 yoffset=8 xadvance=52 page=0 chnl=0 letter="#"
char id=77 x=172 y=176 width=53 height=66 xoffset=2 yoffset=8 xadvance=52 page=0 chnl=0 letter="M"
char id=52 x=227 y=176 width=53 height=66 xoffset=2 yoffset=8 xadvance=52 page=0 chnl=0 letter="4"
char id=68 x=282 y=176 width=51 height=66 xoffset=4 yoffset=8 xadvance=52 page=0 chnl=0 letter="D"
char id=85 x=335 y=176 width=49 height=66 xoffset=4 yoffset=9 xadvance=52 page=0 chnl=0 letter="U"
char id=54 x=386 y=176 width=49 height=66 xoffset=5 yoffset=9 xadvance=52 page=0 chnl=0 letter="6"
char id=57 x=437 y=176 width=49 height=66 xoffset=3 yoffset=8 xadvance=52 page=0 chnl=0 letter="9"
char id=75 x=488 y=176 width=49 height=66 xoffset=6 yoffset=8 xadvance=52 page=0 chnl=0 letter="K"
char id=84 x=539 y=176 width=49 height=66 xoffset=4 yoffset=8 xadvance=52 page=0 chnl=0 letter="T"
char id=82 x=590 y=176 width=49 height=66 xoffset=6 yoffset=8 xadvance=52 page=0 chnl=0 letter="R"
char id=78 x=641 y=176 width=48 height=66 xoffset=4 yoffset=8 xadvance=52 page=0 chnl=0 letter="N"
char id=72 x=691 y=176 width=48 height=66 xoffset=4 yoffset=8 xadvance=52 page=0 chnl=0 letter="H"
char id=66 x=741 y=176 width=48 height=66 xoffset=6 yoffset=8 xadvance=52 page=0 chnl=0 letter="B"
char id=90 x=791 y=176 width=48 height=66 xoffset=5 yoffset=8 xadvance=52 page=0 chnl=0 letter="Z"
char id=80 x=841 y=176 width=47 height=66 xoffset=6 yoffset=8 xadvance=52 page=0 chnl=0 letter="P"
char id=55 x=890 y=176 width=47 height=66 xoffset=5 yoffset=8 xadvance=52 page=0 chnl=0 letter="7"
char id=50 x=939 y=176 width=46 height=66 xoffset=6 yoffset=8 xadvance=52 page=0 chnl=0 letter="2"
char id=73 x=2 y=244 width=43 height=66 xoffset=7 yoffset=8 xadvance=52 page=0 chnl=0 letter="I"
char id=76 x=47 y=244 width=42 height=66 xoffset=9 yoffset=8 xadvance=52 page=0 chnl=0 letter="L"
char id=69 x=91 y=244 width=42 height=66 xoffset=9 yoffset=8 xadvance=52 page=0 chnl=0 letter="E"
char id=70 x=135 y=244 width=40 height=66 xoffset=9 yoffset=8 xadvance=52 page=0 chnl=0 letter="F"
char id=49 x=177 y=244 width=47 height=65 xoffset=5 yoffset=9 xadvance=52 page=0 chnl=0 letter="1"
char id=60 x=226 y=244 width=43 height=57 xoffset=5 yoffset=18 xadvance=52 page=0 chnl=0 letter="<"
char id=62 x=271 y=244 width=43 height=57 xoffset=9 yoffset=18 xadvance=52 page=0 chnl=0 letter=">"
char id=111 x=316 y=244 width=50 height=54 xoffset=3 yoffset=21 xadvance=52 page=0 chnl=0 letter="o"
char id=101 x=368 y=244 width=48 height=54 xoffset=5 yoffset=21 xadvance=52 page=0 chnl=0 letter="e"
char id=97 x=418 y=244 width=46 height=54 xoffset=5 yoffset=21 xadvance=52 page=0 chnl=0 letter="a"
char id=115 x=466 y=244 width=43 height=54 xoffset=7 yoffset=21 xadvance=52 page=0 chnl=0 letter="s"
char id=109 x=511 y=244 width=52 height=53 xoffset=3 yoffset=21 xadvance=52 page=0 chnl=0 letter="m"
char id=110 x=565 y=244 width=44 height=53 xoffset=6 yoffset=21 xadvance=52 page=0 chnl=0 letter="n"
char id=117 x=611 y=244 width=44 height=53 xoffset=6 yoffset=22 xadvance=52 page=0 chnl=0 letter="u"
char id=99 x=657 y=244 width=44 height=53 xoffset=6 yoffset=22 xadvance=52 page=0 chnl=0 letter="c"
char id=114 x=703 y=244 width=44 height=53 xoffset=8 yoffset=21 xadvance=52 page=0 chnl=0 letter="r"
char id=58 x=749 y=244 width=21 height=53 xoffset=18 yoffset=22 xadvance=52 page=0 chnl=0 letter=":"
char id=119 x=772 y=244 width=56 height=52 xoffset=0 yoffset=22 xadvance=52 page=0 chnl=0 letter="w"
char id=118 x=830 y=244 width=55 height=52 xoffset=1 yoffset=22 xadvance=52 page=0 chnl=0 letter="v"
char id=120 x=887 y=244 width=54 height=52 xoffset=2 yoffset=22 xadvance=52 page=0 chnl=0 letter="x"
char id=122 x=943 y=244 width=43 height=52 xoffset=7 yoffset=22 xadvance=52 page=0 chnl=0 letter="z"
char id=43 x=2 y=312 width=50 height=51 xoffset=4 yoffset=20 xadvance=52 page=0 chnl=0 letter="+"
char id=42 x=54 y=312 width=44 height=45 xoffset=6 yoffset=4 xadvance=52 page=0 chnl=0 letter="*"
char id=44 x=100 y=312 width=30 height=38 xoffset=10 yoffset=52 xadvance=52 page=0 chnl=0 letter=","
char id=94 x=132 y=312 width=49 height=34 xoffset=4 yoffset=9 xadvance=52 page=0 chnl=0 letter="^"
char id=61 x=183 y=312 width=44 height=32 xoffset=6 yoffset=30 xadvance=52 page=0 chnl=0 letter="="
char id=34 x=229 y=312 width=36 height=28 xoffset=11 yoffset=4 xadvance=52 page=0 chnl=0 letter="""
char id=39 x=267 y=312 width=17 height=28 xoffset=20 yoffset=4 xadvance=52 page=0 chnl=0 letter="'"
char id=126 x=286 y=312 width=53 height=27 xoffset=2 yoffset=33 xadvance=52 page=0 chnl=0 letter="~"
char id=46 x=341 y=312 width=23 height=23 xoffset=17 yoffset=52 xadvance=52 page=0 chnl=0 letter="."
char id=96 x=366 y=312 width=32 height=17 xoffset=4 yoffset=4 xadvance=52 page=0 chnl=0 letter="`"
char id=45 x=400 y=312 width=33 height=15 xoffset=12 yoffset=39 xadvance=52 page=0 chnl=0 letter="-"
char id=95 x=435 y=312 width=57 height=13 xoffset=0 yoffset=80 xadvance=52 page=0 chnl=0 letter="_"
char id=32 x=494 y=312 width=0 height=0 xoffset=52 yoffset=91 xadvance=52 page=0 chnl=0 letter="space"
